<?xml version="1.0"?>
<!-- robot Humanoid Robot -->
<robot name="robot" xmlns:xacro="http://www.ros.org/wiki/xacro">

  <!-- imports all Gazebo-customization elements, including Gazebo colors -->
  <xacro:include filename="$(find robot_description)/urdf/robot.gazebo"/>
  <!-- import URDF robot model created with Phobos 0.7 (Blender plugin) -->
  <xacro:include filename="$(find robot_description)/urdf/robot.urdf"/>

  <link name="world"/>
  <joint name="fixed" type="fixed">
    <origin xyz="0 0 0.8" rpy="1.57 0 0"/>
    <parent link="world"/>
    <child link="waist"/>
  </joint>

</robot>